C:\Users\33752\Downloads\CentralPay\CentralPay\src\test\java\com\example\CentralPay\services\URLServiceTest.java
C:\Users\33752\Downloads\CentralPay\CentralPay\src\test\java\com\example\CentralPay\CentralPayApplicationTests.java
C:\Users\33752\Downloads\CentralPay\CentralPay\src\test\java\com\example\CentralPay\controller\URLControllerTest.java
